module gitlab.com/navenest/scavenger-hunt

go 1.19

require (
	github.com/coreos/go-oidc/v3 v3.6.0
	github.com/google/go-cmp v0.5.9
	github.com/labstack/echo-contrib v0.15.0
	github.com/labstack/echo/v4 v4.11.1
	go.uber.org/zap v1.25.0
	golang.org/x/oauth2 v0.7.0
)

require (
	github.com/xenitab/go-oidc-middleware/oidcechojwt v0.0.41
	go.uber.org/multierr v1.10.0 // indirect
)

require (
	github.com/golang-migrate/migrate/v4 v4.16.2
	github.com/lib/pq v1.10.9
	github.com/testcontainers/testcontainers-go v0.23.0
	github.com/xenitab/go-oidc-middleware v0.0.43
)

require (
	dario.cat/mergo v1.0.0 // indirect
	github.com/Azure/go-ansiterm v0.0.0-20230124172434-306776ec8161 // indirect
	github.com/Microsoft/go-winio v0.6.1 // indirect
	github.com/Microsoft/hcsshim v0.10.0-rc.8 // indirect
	github.com/andres-erbsen/clock v0.0.0-20160526145045-9e14626cd129 // indirect
	github.com/beorn7/perks v1.0.1 // indirect
	github.com/cenkalti/backoff/v4 v4.2.1 // indirect
	github.com/cespare/xxhash/v2 v2.2.0 // indirect
	github.com/containerd/cgroups v1.1.0 // indirect
	github.com/containerd/containerd v1.7.3 // indirect
	github.com/cpuguy83/dockercfg v0.3.1 // indirect
	github.com/decred/dcrd/dcrec/secp256k1/v4 v4.1.0 // indirect
	github.com/docker/distribution v2.8.2+incompatible // indirect
	github.com/docker/docker v24.0.5+incompatible // indirect
	github.com/docker/go-connections v0.4.0 // indirect
	github.com/docker/go-units v0.5.0 // indirect
	github.com/go-jose/go-jose/v3 v3.0.0 // indirect
	github.com/goccy/go-json v0.10.0 // indirect
	github.com/gogo/protobuf v1.3.2 // indirect
	github.com/golang-jwt/jwt v3.2.2+incompatible // indirect
	github.com/golang/groupcache v0.0.0-20210331224755-41bb18bfe9da // indirect
	github.com/golang/protobuf v1.5.3 // indirect
	github.com/google/uuid v1.3.0 // indirect
	github.com/hashicorp/errwrap v1.1.0 // indirect
	github.com/hashicorp/go-multierror v1.1.1 // indirect
	github.com/imdario/mergo v0.3.15 // indirect
	github.com/json-iterator/go v1.1.12 // indirect
	github.com/klauspost/compress v1.16.0 // indirect
	github.com/labstack/gommon v0.4.0 // indirect
	github.com/lestrrat-go/backoff/v2 v2.0.8 // indirect
	github.com/lestrrat-go/blackmagic v1.0.1 // indirect
	github.com/lestrrat-go/httpcc v1.0.1 // indirect
	github.com/lestrrat-go/iter v1.0.2 // indirect
	github.com/lestrrat-go/jwx v1.2.25 // indirect
	github.com/lestrrat-go/option v1.0.1 // indirect
	github.com/magiconair/properties v1.8.7 // indirect
	github.com/mattn/go-colorable v0.1.13 // indirect
	github.com/mattn/go-isatty v0.0.19 // indirect
	github.com/matttproud/golang_protobuf_extensions v1.0.4 // indirect
	github.com/moby/patternmatcher v0.5.0 // indirect
	github.com/moby/sys/mount v0.3.3 // indirect
	github.com/moby/sys/mountinfo v0.6.2 // indirect
	github.com/moby/sys/sequential v0.5.0 // indirect
	github.com/moby/term v0.5.0 // indirect
	github.com/modern-go/concurrent v0.0.0-20180306012644-bacd9c7ef1dd // indirect
	github.com/modern-go/reflect2 v1.0.2 // indirect
	github.com/morikuni/aec v1.0.0 // indirect
	github.com/opencontainers/go-digest v1.0.0 // indirect
	github.com/opencontainers/image-spec v1.1.0-rc4 // indirect
	github.com/opencontainers/runc v1.1.5 // indirect
	github.com/pkg/errors v0.9.1 // indirect
	github.com/prometheus/client_golang v1.14.0 // indirect
	github.com/prometheus/client_model v0.3.0 // indirect
	github.com/prometheus/common v0.40.0 // indirect
	github.com/prometheus/procfs v0.9.0 // indirect
	github.com/sirupsen/logrus v1.9.2 // indirect
	github.com/valyala/bytebufferpool v1.0.0 // indirect
	github.com/valyala/fasttemplate v1.2.2 // indirect
	github.com/zclconf/go-cty v1.12.1 // indirect
	go.opencensus.io v0.24.0 // indirect
	go.uber.org/atomic v1.10.0 // indirect
	go.uber.org/ratelimit v0.2.0 // indirect
	golang.org/x/crypto v0.11.0 // indirect
	golang.org/x/exp v0.0.0-20230510235704-dd950f8aeaea // indirect
	golang.org/x/mod v0.10.0 // indirect
	golang.org/x/net v0.12.0 // indirect
	golang.org/x/sync v0.2.0 // indirect
	golang.org/x/sys v0.11.0 // indirect
	golang.org/x/text v0.11.0 // indirect
	golang.org/x/time v0.3.0 // indirect
	golang.org/x/tools v0.9.1 // indirect
	google.golang.org/appengine v1.6.7 // indirect
	google.golang.org/genproto v0.0.0-20230526161137-0005af68ea54 // indirect
	google.golang.org/genproto/googleapis/rpc v0.0.0-20230525234030-28d5490b6b19 // indirect
	google.golang.org/grpc v1.57.0 // indirect
	google.golang.org/protobuf v1.30.0 // indirect
	gopkg.in/square/go-jose.v2 v2.6.0 // indirect
	gopkg.in/yaml.v3 v3.0.1 // indirect
)
